EVALUATION:
 rank    counts    recall
    1     12975    0.8474
    2       212    0.8613
    3        23    0.8628
    4        11    0.8635
    5         3    0.8637
    6         5    0.864
    7         3    0.8642
    8         2    0.8643
    9         1    0.8644
   10         2    0.8645

                      rec   prec    f1
Error Detection:   0.0599 0.8647  0.112
Normalization:    0.05746 0.8294 0.1075

WER:  0.1526
CER:  0.04683

notFound:           2055
Total:              15311
Average candidates: 183.1
Upperbound:         0.8658 (13256)
Baseline:           0.8397 (12857)
Training time:      5107
Testing time:       735

TP 141
TN 12834
FP 23
FN 2313
Real Prec: 0.8598
normed: 170
Real rec: 0.05746
needNorm: 2454
ERR:  0.04808

orig = cand[0]     213
orig = cand[1]     21
orig = cand[other] 1
