EVALUATION:
 rank    counts    recall
    1      7227    0.8943
    2        10    0.8956
    3         2    0.8958
    4         0    0.8958
    5         0    0.8958
    6         0    0.8958
    7         0    0.8958
    8         0    0.8958
    9         0    0.8958
   10         0    0.8958

                      rec   prec    f1
Error Detection:        0   -nan   -nan
Normalization:          0   -nan   -nan

WER:  0.1057
CER:  0.04371

notFound:           825
Total:              8081
Average candidates: 66.95
Upperbound:         0.8979 (7256)
Baseline:           0.8943 (7227)
Training time:      1377
Testing time:       162

TP 0
TN 7227
FP 0
FN 854
Real Prec: -nan
normed: 0
Real rec: 0
needNorm: 854
ERR:  0

orig = cand[0]     10
orig = cand[1]     0
orig = cand[other] 0
