EVALUATION:
 rank    counts    recall
    1      8764    0.9558
    2       124    0.9694
    3        16    0.9711
    4         2    0.9713
    5         0    0.9713
    6         4    0.9718
    7         0    0.9718
    8         1    0.9719
    9         2    0.9721
   10         0    0.9721

                      rec   prec    f1
Error Detection:   0.5661 0.8982 0.6945
Normalization:     0.5443 0.8635 0.6677

WER:  0.04417
CER:  0.04113

notFound:           249
Total:              9169
Average candidates: 73.81
Upperbound:         0.9728 (8920)
Baseline:           0.915 (8390)
Training time:      1888
Testing time:       217

TP 424
TN 8340
FP 50
FN 355
Real Prec: 0.8945
normed: 491
Real rec: 0.5443
needNorm: 779
ERR:  0.4801

orig = cand[0]     78
orig = cand[1]     42
orig = cand[other] 4
