EVALUATION:
 rank    counts    recall
    1     13428    0.877
    2       366    0.9009
    3        86    0.9065
    4        34    0.9088
    5        17    0.9099
    6        10    0.9105
    7         7    0.911
    8         2    0.9111
    9         2    0.9112
   10         5    0.9116

                      rec   prec    f1
Error Detection:   0.2759 0.9325 0.4258
Normalization:     0.2526  0.854 0.3899

WER:  0.123
CER:  0.03804

notFound:           1327
Total:              15311
Average candidates: 193.5
Upperbound:         0.9133 (13984)
Baseline:           0.8397 (12857)
Training time:      5465
Testing time:       789

TP 620
TN 12808
FP 49
FN 1834
Real Prec: 0.9268
normed: 726
Real rec: 0.2526
needNorm: 2454
ERR:  0.2327

orig = cand[0]     334
orig = cand[1]     47
orig = cand[other] 12
