EVALUATION:
 rank    counts    recall
    1      1345    0.9425
    2        43    0.9727
    3         9    0.979
    4         0    0.979
    5         0    0.979
    6         1    0.9797
    7         0    0.9797
    8         0    0.9797
    9         0    0.9797
   10         0    0.9797

                      rec   prec    f1
Error Detection:   0.3934 0.9057 0.5486
Normalization:     0.3689 0.8491 0.5143

WER:  0.05746
CER:  0.0262

notFound:           26
Total:              1427
Average candidates: 53.14
Upperbound:         0.9818 (1401)
Baseline:           0.9145 (1305)
Training time:      112
Testing time:       24

TP 45
TN 1300
FP 5
FN 77
Real Prec: 0.9
normed: 53
Real rec: 0.3689
needNorm: 122
ERR:  0.3279

orig = cand[0]     40
orig = cand[1]     5
orig = cand[other] 0
