EVALUATION:
 rank    counts    recall
    1     14359    0.9378
    2       393    0.9635
    3        78    0.9686
    4        43    0.9714
    5        23    0.9729
    6         5    0.9732
    7         6    0.9736
    8         3    0.9738
    9         5    0.9741
   10         4    0.9744

                      rec   prec    f1
Error Detection:   0.6866 0.9596 0.8005
Normalization:      0.641 0.8958 0.7473

WER:  0.06218
CER:  0.02202

notFound:           355
Total:              15311
Average candidates: 214.1
Upperbound:         0.9768 (14956)
Baseline:           0.8397 (12857)
Training time:      6247
Testing time:       816

TP 1573
TN 12786
FP 71
FN 881
Real Prec: 0.9568
normed: 1756
Real rec: 0.641
needNorm: 2454
ERR:  0.6121

orig = cand[0]     317
orig = cand[1]     60
orig = cand[other] 43
