EVALUATION:
 rank    counts    recall
    1     17314    0.9729
    2       193    0.9838
    3        27    0.9853
    4        18    0.9863
    5         9    0.9868
    6         9    0.9873
    7         1    0.9874
    8         4    0.9876
    9         2    0.9877
   10         1    0.9878

                      rec   prec    f1
Error Detection:   0.7166 0.9589 0.8203
Normalization:     0.6867 0.9188 0.7859

WER:  0.02708
CER:  0.01291

notFound:           190
Total:              17796
Average candidates: 114.7
Upperbound:         0.9893 (17606)
Baseline:           0.9213 (16395)
Training time:      5015
Testing time:       608

TP 962
TN 16352
FP 43
FN 439
Real Prec: 0.9572
normed: 1047
Real rec: 0.6867
needNorm: 1401
ERR:  0.656

orig = cand[0]     164
orig = cand[1]     42
orig = cand[other] 11
