EVALUATION:
 rank    counts    recall
    1      1308    0.9166
    2         3    0.9187
    3         1    0.9194
    4         0    0.9194
    5         0    0.9194
    6         0    0.9194
    7         0    0.9194
    8         0    0.9194
    9         0    0.9194
   10         0    0.9194

                      rec   prec    f1
Error Detection:  0.02459      1  0.048
Normalization:    0.02459      1  0.048

WER:  0.08339
CER:  0.03458

notFound:           113
Total:              1427
Average candidates: 45.61
Upperbound:         0.9208 (1314)
Baseline:           0.9145 (1305)
Training time:      135
Testing time:       28

TP 3
TN 1305
FP 0
FN 119
Real Prec: 1
normed: 3
Real rec: 0.02459
needNorm: 122
ERR:  0.02459

orig = cand[0]     3
orig = cand[1]     0
orig = cand[other] 0
