EVALUATION:
 rank    counts    recall
    1      8728    0.9519
    2       124    0.9654
    3        13    0.9668
    4         7    0.9676
    5         1    0.9677
    6         1    0.9678
    7         1    0.9679
    8         0    0.9679
    9         0    0.9679
   10         0    0.9679

                      rec   prec    f1
Error Detection:   0.5173 0.8916 0.6548
Normalization:     0.4968 0.8562 0.6288

WER:  0.0481
CER:  0.04365

notFound:           288
Total:              9169
Average candidates: 73.49
Upperbound:         0.9686 (8881)
Baseline:           0.915 (8390)
Training time:      2164
Testing time:       212

TP 387
TN 8341
FP 49
FN 392
Real Prec: 0.8876
normed: 452
Real rec: 0.4968
needNorm: 779
ERR:  0.4339

orig = cand[0]     79
orig = cand[1]     42
orig = cand[other] 3
