EVALUATION:
 rank    counts    recall
    1     16602    0.9329
    2       219    0.9452
    3        32    0.947
    4        23    0.9483
    5         4    0.9485
    6         3    0.9487
    7         1    0.9488
    8         2    0.9489
    9         3    0.949
   10         2    0.9491

                      rec   prec    f1
Error Detection:   0.1742 0.9071 0.2922
Normalization:     0.1656 0.8625 0.2778

WER:  0.06709
CER:  0.0287

notFound:           877
Total:              17796
Average candidates: 108.1
Upperbound:         0.9507 (16919)
Baseline:           0.9213 (16395)
Training time:      4685
Testing time:       655

TP 232
TN 16370
FP 25
FN 1169
Real Prec: 0.9027
normed: 269
Real rec: 0.1656
needNorm: 1401
ERR:  0.1478

orig = cand[0]     216
orig = cand[1]     25
orig = cand[other] 2
