EVALUATION:
 rank    counts    recall
    1     13783    0.9002
    2       370    0.9244
    3        88    0.9301
    4        36    0.9325
    5        18    0.9336
    6        12    0.9344
    7         6    0.9348
    8         5    0.9351
    9         2    0.9353
   10         1    0.9353

                      rec   prec    f1
Error Detection:   0.4503 0.9364 0.6081
Normalization:     0.4079 0.8483 0.5509

WER:  0.0998
CER:  0.03159

notFound:           956
Total:              15311
Average candidates: 203.2
Upperbound:         0.9376 (14355)
Baseline:           0.8397 (12857)
Training time:      9550
Testing time:       767

TP 1001
TN 12782
FP 75
FN 1453
Real Prec: 0.9303
normed: 1180
Real rec: 0.4079
needNorm: 2454
ERR:  0.3773

orig = cand[0]     298
orig = cand[1]     65
orig = cand[other] 34
