EVALUATION:
 rank    counts    recall
    1     14231    0.9295
    2       393    0.9551
    3        78    0.9602
    4        39    0.9628
    5        14    0.9637
    6        19    0.9649
    7         5    0.9653
    8         3    0.9654
    9         6    0.9658
   10         3    0.966

                      rec   prec    f1
Error Detection:   0.6345 0.9546 0.7623
Normalization:     0.5901 0.8878 0.7089

WER:  0.07054
CER:  0.02391

notFound:           482
Total:              15311
Average candidates: 212.9
Upperbound:         0.9685 (14829)
Baseline:           0.8397 (12857)
Training time:      6647
Testing time:       871

TP 1448
TN 12783
FP 74
FN 1006
Real Prec: 0.9514
normed: 1631
Real rec: 0.5901
needNorm: 2454
ERR:  0.5599

orig = cand[0]     314
orig = cand[1]     64
orig = cand[other] 42
