EVALUATION:
 rank    counts    recall
    1      2629    0.9843
    2        18    0.991
    3         6    0.9933
    4         1    0.9936
    5         1    0.994
    6         0    0.994
    7         0    0.994
    8         0    0.994
    9         0    0.994
   10         0    0.994

                      rec   prec    f1
Error Detection:   0.4746 0.8235 0.6022
Normalization:     0.3898 0.6765 0.4946

WER:  0.01572
CER:  0.007264

notFound:           9
Total:              2671
Average candidates: 162.7
Upperbound:         0.9966 (2662)
Baseline:           0.9779 (2612)
Training time:      416
Testing time:       102

TP 23
TN 2606
FP 6
FN 36
Real Prec: 0.7931
normed: 34
Real rec: 0.3898
needNorm: 59
ERR:  0.2881

orig = cand[0]     13
orig = cand[1]     5
orig = cand[other] 0
