EVALUATION:
 rank    counts    recall
    1      2620    0.9809
    2        18    0.9876
    3         4    0.9891
    4         0    0.9891
    5         1    0.9895
    6         0    0.9895
    7         0    0.9895
    8         1    0.9899
    9         0    0.9899
   10         0    0.9899

                      rec   prec    f1
Error Detection:   0.2203 0.7222 0.3377
Normalization:     0.2203 0.7222 0.3377

WER:  0.01909
CER:  0.008902

notFound:           21
Total:              2671
Average candidates: 162.1
Upperbound:         0.9921 (2650)
Baseline:           0.9779 (2612)
Training time:      517
Testing time:       116

TP 13
TN 2607
FP 5
FN 46
Real Prec: 0.7222
normed: 18
Real rec: 0.2203
needNorm: 59
ERR:  0.1356

orig = cand[0]     13
orig = cand[1]     5
orig = cand[other] 0
