EVALUATION:
 rank    counts    recall
    1     16785    0.9432
    2       211    0.955
    3        28    0.9566
    4        10    0.9572
    5        12    0.9579
    6         4    0.9581
    7         5    0.9584
    8         4    0.9586
    9         4    0.9588
   10         1    0.9589

                      rec   prec    f1
Error Detection:   0.3212 0.9202 0.4762
Normalization:     0.3062 0.8773  0.454

WER:  0.05681
CER:  0.02454

notFound:           705
Total:              17796
Average candidates: 111
Upperbound:         0.9604 (17091)
Baseline:           0.9213 (16395)
Training time:      5929
Testing time:       701

TP 429
TN 16356
FP 39
FN 972
Real Prec: 0.9167
normed: 489
Real rec: 0.3062
needNorm: 1401
ERR:  0.2784

orig = cand[0]     193
orig = cand[1]     37
orig = cand[other] 5
