EVALUATION:
 rank    counts    recall
    1      2611    0.9775
    2        12    0.982
    3         0    0.982
    4         0    0.982
    5         0    0.982
    6         0    0.982
    7         1    0.9824
    8         0    0.9824
    9         0    0.9824
   10         0    0.9824

                      rec   prec    f1
Error Detection:        0      0   -nan
Normalization:          0      0   -nan

WER:  0.02246
CER:  0.01075

notFound:           41
Total:              2671
Average candidates: 160.5
Upperbound:         0.9846 (2630)
Baseline:           0.9779 (2612)
Training time:      463
Testing time:       107

TP 0
TN 2611
FP 1
FN 59
Real Prec: 0
normed: 1
Real rec: 0
needNorm: 59
ERR:  3.127e+17

orig = cand[0]     11
orig = cand[1]     1
orig = cand[other] 0
