EVALUATION:
 rank    counts    recall
    1      8536    0.931
    2       136    0.9458
    3        13    0.9472
    4         6    0.9479
    5         0    0.9479
    6         1    0.948
    7         0    0.948
    8         0    0.948
    9         0    0.948
   10         0    0.948

                      rec   prec    f1
Error Detection:   0.2529 0.8277 0.3874
Normalization:     0.2401 0.7857 0.3677

WER:  0.06904
CER:  0.05475

notFound:           470
Total:              9169
Average candidates: 71.89
Upperbound:         0.9487 (8699)
Baseline:           0.915 (8390)
Training time:      1345
Testing time:       200

TP 187
TN 8349
FP 41
FN 592
Real Prec: 0.8202
normed: 238
Real rec: 0.2401
needNorm: 779
ERR:  0.1874

orig = cand[0]     100
orig = cand[1]     36
orig = cand[other] 0
