EVALUATION:
 rank    counts    recall
    1      8393    0.9154
    2        16    0.9171
    3         1    0.9172
    4         0    0.9172
    5         0    0.9172
    6         1    0.9173
    7         0    0.9173
    8         0    0.9173
    9         0    0.9173
   10         0    0.9173

                      rec   prec    f1
Error Detection:  0.003851      10.007673
Normalization:    0.003851      10.007673

WER:  0.08463
CER:  0.06177

notFound:           748
Total:              9169
Average candidates: 60.18
Upperbound:         0.9184 (8421)
Baseline:           0.915 (8390)
Training time:      1309
Testing time:       163

TP 3
TN 8390
FP 0
FN 776
Real Prec: 1
normed: 3
Real rec: 0.003851
needNorm: 779
ERR:  0.003851

orig = cand[0]     16
orig = cand[1]     0
orig = cand[other] 0
