EVALUATION:
 rank    counts    recall
    1      7227    0.8943
    2        42    0.8995
    3         2    0.8998
    4         1    0.8999
    5         2    0.9001
    6         0    0.9001
    7         0    0.9001
    8         0    0.9001
    9         0    0.9001
   10         0    0.9001

                      rec   prec    f1
Error Detection:  0.001171    0.50.002336
Normalization:    0.001171    0.50.002336

WER:  0.1057
CER:  0.04376

notFound:           796
Total:              8081
Average candidates: 72.8
Upperbound:         0.9015 (7285)
Baseline:           0.8943 (7227)
Training time:      1609
Testing time:       177

TP 1
TN 7226
FP 1
FN 853
Real Prec: 0.5
normed: 2
Real rec: 0.001171
needNorm: 854
ERR:  0

orig = cand[0]     41
orig = cand[1]     1
orig = cand[other] 0
