EVALUATION:
 rank    counts    recall
    1      8944    0.9755
    2       136    0.9903
    3        12    0.9916
    4         5    0.9921
    5         0    0.9921
    6         1    0.9923
    7         1    0.9924
    8         0    0.9924
    9         1    0.9925
   10         0    0.9925

                      rec   prec    f1
Error Detection:   0.8074 0.9156 0.8581
Normalization:     0.7856 0.8908 0.8349

WER:  0.02454
CER:  0.01335

notFound:           60
Total:              9169
Average candidates: 75.35
Upperbound:         0.9935 (9109)
Baseline:           0.915 (8390)
Training time:      2054
Testing time:       211

TP 612
TN 8332
FP 58
FN 167
Real Prec: 0.9134
normed: 687
Real rec: 0.7856
needNorm: 779
ERR:  0.7112

orig = cand[0]     80
orig = cand[1]     52
orig = cand[other] 4
