EVALUATION:
 rank    counts    recall
    1        78    0.6393
    2         6    0.6885
    3         4    0.7213
    4         0    0.7213
    5         2    0.7377
    6         0    0.7377
    7         0    0.7377
    8         0    0.7377
    9         0    0.7377
   10         2    0.7541

                      rec   prec    f1
Error Detection:   0.9836      1 0.9917
Normalization:     0.6393   0.65 0.6446

WER:  0.03083
CER:  0.0203

notFound:           26
Total:              122
Average candidates: 55.25
Upperbound:         0.7869 (96)
Baseline:           0 (0)
Training time:      4
Testing time:       2

TP 78
TN 0
FP 0
FN 44
Real Prec: 1
normed: 120
Real rec: 0.6393
needNorm: 122
ERR:  0.6393

orig = cand[0]     0
orig = cand[1]     0
orig = cand[other] 6
