EVALUATION:
 rank    counts    recall
    1         0    0
    2         0    0
    3         0    0
    4         0    0
    5         0    0
    6         0    0
    7         0    0
    8         0    0
    9         0    0
   10         0    0

                      rec   prec    f1
Error Detection:   0.2076      1 0.3438
Normalization:          0      0   -nan

WER:  0.1033
CER:  0.03946

notFound:           1956
Total:              1956
Average candidates: 0.2265
Upperbound:         0 (0)
Baseline:           0 (0)
Testing time:       1

TP 0
TN 0
FP 0
FN 1956
Real Prec: -nan
normed: 406
Real rec: 0
needNorm: 1956
ERR:  0

orig = cand[0]     0
orig = cand[1]     371
orig = cand[other] 0
