EVALUATION:
 rank    counts    recall
    1        40    0.3279
    2         9    0.4016
    3         0    0.4016
    4         0    0.4016
    5         3    0.4262
    6         0    0.4262
    7         0    0.4262
    8         0    0.4262
    9         0    0.4262
   10         0    0.4262

                      rec   prec    f1
Error Detection:   0.8689      1 0.9298
Normalization:     0.3279 0.3774 0.3509

WER:  0.05746
CER:  0.04189

notFound:           68
Total:              122
Average candidates: 34.62
Upperbound:         0.4426 (54)
Baseline:           0 (0)
Training time:      1
Testing time:       0

TP 40
TN 0
FP 0
FN 82
Real Prec: 1
normed: 106
Real rec: 0.3279
needNorm: 122
ERR:  0.3279

orig = cand[0]     0
orig = cand[1]     0
orig = cand[other] 9
