EVALUATION:
 rank    counts    recall
    1       984    0.7024
    2        37    0.7288
    3        17    0.7409
    4        22    0.7566
    5         6    0.7609
    6        24    0.778
    7        11    0.7859
    8         8    0.7916
    9         4    0.7944
   10         1    0.7951

                      rec   prec    f1
Error Detection:   0.9822      1  0.991
Normalization:     0.7024 0.7151 0.7087

WER:  0.02343
CER:  0.01267

notFound:           230
Total:              1401
Average candidates: 112.5
Upperbound:         0.8358 (1171)
Baseline:           0 (0)
Training time:      136
Testing time:       36

TP 984
TN 0
FP 0
FN 417
Real Prec: 1
normed: 1376
Real rec: 0.7024
needNorm: 1401
ERR:  0.7024

orig = cand[0]     0
orig = cand[1]     1
orig = cand[other] 37
