EVALUATION:
 rank    counts    recall
    1        87    0.04446
    2        11    0.05008
    3         4    0.05212
    4         4    0.05416
    5         0    0.05416
    6         0    0.05416
    7         4    0.05621
    8         0    0.05621
    9         0    0.05621
   10         0    0.05621

                      rec   prec    f1
Error Detection:   0.2918      1 0.4517
Normalization:    0.04446 0.15240.06883

WER:  0.09873
CER:  0.04944

notFound:           1759
Total:              1957
Average candidates: 44.2
Upperbound:         0.1012 (198)
Baseline:           0 (0)
Training time:      24
Testing time:       15

TP 87
TN 0
FP 0
FN 1870
Real Prec: 1
normed: 571
Real rec: 0.04446
needNorm: 1957
ERR:  0.04446

orig = cand[0]     0
orig = cand[1]     31
orig = cand[other] 11
