EVALUATION:
 rank    counts    recall
    1        12    0.2034
    2         9    0.3559
    3         6    0.4576
    4         3    0.5085
    5         0    0.5085
    6         1    0.5254
    7         0    0.5254
    8         1    0.5424
    9         0    0.5424
   10         0    0.5424

                      rec   prec    f1
Error Detection:   0.9831      1 0.9915
Normalization:     0.2034 0.2069 0.2051

WER:  0.0176
CER:  0.01118

notFound:           25
Total:              59
Average candidates: 21.97
Upperbound:         0.5763 (34)
Baseline:           0 (0)
Training time:      1
Testing time:       0

TP 12
TN 0
FP 0
FN 47
Real Prec: 1
normed: 58
Real rec: 0.2034
needNorm: 59
ERR:  0.2034

orig = cand[0]     0
orig = cand[1]     0
orig = cand[other] 9
