EVALUATION:
 rank    counts    recall
    1       643    0.459
    2        58    0.5004
    3        17    0.5125
    4        14    0.5225
    5        21    0.5375
    6        13    0.5468
    7        15    0.5575
    8         8    0.5632
    9         5    0.5667
   10        10    0.5739

                      rec   prec    f1
Error Detection:   0.9243      1 0.9607
Normalization:      0.459 0.4965  0.477

WER:  0.04259
CER:  0.02911

notFound:           518
Total:              1401
Average candidates: 89.85
Upperbound:         0.6303 (883)
Baseline:           0 (0)
Training time:      71
Testing time:       25

TP 643
TN 0
FP 0
FN 758
Real Prec: 1
normed: 1295
Real rec: 0.459
needNorm: 1401
ERR:  0.459

orig = cand[0]     0
orig = cand[1]     31
orig = cand[other] 58
