EVALUATION:
 rank    counts    recall
    1         0    0
    2         0    0
    3         0    0
    4         0    0
    5         0    0
    6         0    0
    7         0    0
    8         0    0
    9         0    0
   10         0    0

                      rec   prec    f1
Error Detection:   0.2834      1 0.4416
Normalization:          0      0   -nan

WER:  0.1057
CER:  0.04906

notFound:           854
Total:              854
Average candidates: 0.315
Upperbound:         0 (0)
Baseline:           0 (0)
Testing time:       0

TP 0
TN 0
FP 0
FN 854
Real Prec: -nan
normed: 242
Real rec: 0
needNorm: 854
ERR:  0

orig = cand[0]     0
orig = cand[1]     217
orig = cand[other] 0
