EVALUATION:
 rank    counts    recall
    1       230    0.2693
    2        81    0.3642
    3        46    0.418
    4        32    0.4555
    5        20    0.4789
    6        13    0.4941
    7        16    0.5129
    8        10    0.5246
    9        11    0.5375
   10         4    0.5422

                      rec   prec    f1
Error Detection:   0.9333      1 0.9655
Normalization:     0.2693 0.2886 0.2786

WER:  0.07722
CER:  0.05433

notFound:           346
Total:              854
Average candidates: 35.81
Upperbound:         0.5948 (508)
Baseline:           0 (0)
Training time:      16
Testing time:       5

TP 230
TN 0
FP 0
FN 624
Real Prec: 1
normed: 797
Real rec: 0.2693
needNorm: 854
ERR:  0.2693

orig = cand[0]     0
orig = cand[1]     0
orig = cand[other] 81
