EVALUATION:
 rank    counts    recall
    1       415    0.4859
    2         7    0.4941
    3        10    0.5059
    4         0    0.5059
    5         0    0.5059
    6         0    0.5059
    7         0    0.5059
    8         0    0.5059
    9         0    0.5059
   10         0    0.5059

                      rec   prec    f1
Error Detection:   0.5129      1  0.678
Normalization:     0.4859 0.9475 0.6424

WER:  0.05432
CER:  0.02285

notFound:           422
Total:              854
Average candidates: 0.7553
Upperbound:         0.5059 (432)
Baseline:           0 (0)
Testing time:       1

TP 415
TN 0
FP 0
FN 439
Real Prec: 1
normed: 438
Real rec: 0.4859
needNorm: 854
ERR:  0.4859

orig = cand[0]     0
orig = cand[1]     5
orig = cand[other] 7
