EVALUATION:
 rank    counts    recall
    1       816    0.4172
    2       125    0.4811
    3        80    0.522
    4        38    0.5414
    5        34    0.5588
    6        20    0.569
    7        11    0.5746
    8         9    0.5792
    9         4    0.5813
   10         3    0.5828

                      rec   prec    f1
Error Detection:   0.9468      1 0.9727
Normalization:     0.4172 0.4406 0.4286

WER:  0.06019
CER:  0.03106

notFound:           753
Total:              1956
Average candidates: 15.85
Upperbound:         0.615 (1203)
Baseline:           0 (0)
Training time:      9
Testing time:       12

TP 816
TN 0
FP 0
FN 1140
Real Prec: 1
normed: 1852
Real rec: 0.4172
needNorm: 1956
ERR:  0.4172

orig = cand[0]     0
orig = cand[1]     24
orig = cand[other] 125
