EVALUATION:
 rank    counts    recall
    1      7721    0.9555
    2       252    0.9866
    3        34    0.9908
    4        15    0.9927
    5         4    0.9932
    6         2    0.9934
    7         0    0.9934
    8         0    0.9934
    9         1    0.9936
   10         0    0.9936

                      rec   prec    f1
Error Detection:   0.7166 0.8706 0.7861
Normalization:      0.685 0.8321 0.7514

WER:  0.04455
CER:  0.01939

notFound:           36
Total:              8081
Average candidates: 84.15
Upperbound:         0.9955 (8045)
Baseline:           0.8943 (7227)
Training time:      1161
Testing time:       160

TP 585
TN 7136
FP 91
FN 269
Real Prec: 0.8654
normed: 703
Real rec: 0.685
needNorm: 854
ERR:  0.5785

orig = cand[0]     160
orig = cand[1]     78
orig = cand[other] 14
