EVALUATION:
 rank    counts    recall
    1     17290    0.9716
    2       210    0.9834
    3        28    0.9849
    4        16    0.9858
    5         8    0.9863
    6        12    0.987
    7         4    0.9872
    8         3    0.9874
    9         2    0.9875
   10         0    0.9875

                      rec   prec    f1
Error Detection:   0.7045   0.95  0.809
Normalization:     0.6759 0.9115 0.7762

WER:  0.02843
CER:  0.01334

notFound:           190
Total:              17796
Average candidates: 114.7
Upperbound:         0.9893 (17606)
Baseline:           0.9213 (16395)
Training time:      1865
Testing time:       549

TP 947
TN 16343
FP 52
FN 454
Real Prec: 0.9479
normed: 1039
Real rec: 0.6759
needNorm: 1401
ERR:  0.6388

orig = cand[0]     177
orig = cand[1]     50
orig = cand[other] 7
