EVALUATION:
 rank    counts    recall
    1      8948    0.9759
    2       129    0.99
    3        15    0.9916
    4         4    0.992
    5         3    0.9924
    6         0    0.9924
    7         0    0.9924
    8         0    0.9924
    9         1    0.9925
   10         0    0.9925

                      rec   prec    f1
Error Detection:   0.8049 0.9207 0.8589
Normalization:     0.7856 0.8987 0.8384

WER:  0.0241
CER:  0.01291

notFound:           60
Total:              9169
Average candidates: 75.35
Upperbound:         0.9935 (9109)
Baseline:           0.915 (8390)
Training time:      1063
Testing time:       159

TP 612
TN 8336
FP 54
FN 167
Real Prec: 0.9189
normed: 681
Real rec: 0.7856
needNorm: 779
ERR:  0.7163

orig = cand[0]     76
orig = cand[1]     46
orig = cand[other] 7
