EVALUATION:
 rank    counts    recall
    1      8875    0.9679
    2       180    0.9876
    3        14    0.9891
    4         5    0.9896
    5         3    0.99
    6         2    0.9902
    7         1    0.9903
    8         2    0.9905
    9         1    0.9906
   10         3    0.9909

                      rec   prec    f1
Error Detection:   0.6688  0.956  0.787
Normalization:     0.6534 0.9339 0.7689

WER:  0.03206
CER:  0.01699

notFound:           77
Total:              9169
Average candidates: 75.35
Upperbound:         0.9916 (9092)
Baseline:           0.915 (8390)
Training time:      22
Testing time:       172

TP 509
TN 8366
FP 24
FN 270
Real Prec: 0.955
normed: 545
Real rec: 0.6534
needNorm: 779
ERR:  0.6226

orig = cand[0]     150
orig = cand[1]     24
orig = cand[other] 6
