EVALUATION:
 rank    counts    recall
    1     17303    0.9723
    2       200    0.9835
    3        34    0.9854
    4        17    0.9864
    5        10    0.987
    6         4    0.9872
    7         6    0.9875
    8         2    0.9876
    9         2    0.9878
   10         3    0.9879

                      rec   prec    f1
Error Detection:   0.7195 0.9456 0.8172
Normalization:     0.6895 0.9062 0.7831

WER:  0.0277
CER:  0.013

notFound:           190
Total:              17796
Average candidates: 114.7
Upperbound:         0.9893 (17606)
Baseline:           0.9213 (16395)
Training time:      2314
Testing time:       555

TP 966
TN 16337
FP 58
FN 435
Real Prec: 0.9434
normed: 1066
Real rec: 0.6895
needNorm: 1401
ERR:  0.6481

orig = cand[0]     160
orig = cand[1]     54
orig = cand[other] 10
