EVALUATION:
 rank    counts    recall
    1     17283    0.9712
    2       222    0.9836
    3        28    0.9852
    4        18    0.9862
    5        10    0.9868
    6         6    0.9871
    7         0    0.9871
    8         4    0.9874
    9         3    0.9875
   10         1    0.9876

                      rec   prec    f1
Error Detection:   0.6924 0.9576 0.8036
Normalization:     0.6645 0.9191 0.7713

WER:  0.02883
CER:  0.01346

notFound:           190
Total:              17796
Average candidates: 114.7
Upperbound:         0.9893 (17606)
Baseline:           0.9213 (16395)
Training time:      1275
Testing time:       556

TP 931
TN 16352
FP 43
FN 470
Real Prec: 0.9559
normed: 1013
Real rec: 0.6645
needNorm: 1401
ERR:  0.6338

orig = cand[0]     192
orig = cand[1]     43
orig = cand[other] 11
