EVALUATION:
 rank    counts    recall
    1     14375    0.9389
    2       387    0.9641
    3        79    0.9693
    4        39    0.9719
    5        21    0.9732
    6        10    0.9739
    7         8    0.9744
    8         3    0.9746
    9         9    0.9752
   10         3    0.9754

                      rec   prec    f1
Error Detection:   0.6968  0.958 0.8068
Normalization:     0.6491 0.8924 0.7516

WER:  0.06113
CER:  0.02212

notFound:           331
Total:              15311
Average candidates: 215.4
Upperbound:         0.9784 (14980)
Baseline:           0.8397 (12857)
Training time:      2866
Testing time:       771

TP 1593
TN 12782
FP 75
FN 861
Real Prec: 0.955
normed: 1785
Real rec: 0.6491
needNorm: 2454
ERR:  0.6186

orig = cand[0]     304
orig = cand[1]     66
orig = cand[other] 44
