EVALUATION:
 rank    counts    recall
    1     17278    0.9709
    2       230    0.9838
    3        28    0.9854
    4        19    0.9865
    5         5    0.9867
    6         5    0.987
    7         4    0.9872
    8         2    0.9874
    9         5    0.9876
   10         2    0.9878

                      rec   prec    f1
Error Detection:   0.6874 0.9582 0.8005
Normalization:     0.6602 0.9204 0.7689

WER:  0.02911
CER:  0.01355

notFound:           190
Total:              17796
Average candidates: 114.7
Upperbound:         0.9893 (17606)
Baseline:           0.9213 (16395)
Training time:      1249
Testing time:       569

TP 925
TN 16353
FP 42
FN 476
Real Prec: 0.9566
normed: 1005
Real rec: 0.6602
needNorm: 1401
ERR:  0.6303

orig = cand[0]     201
orig = cand[1]     42
orig = cand[other] 11
