EVALUATION:
 rank    counts    recall
    1     17923    0.9463
    2       502    0.9728
    3        61    0.976
    4        36    0.9779
    5        15    0.9787
    6         8    0.9791
    7         3    0.9793
    8         5    0.9795
    9         1    0.9796
   10         1    0.9796

                      rec   prec    f1
Error Detection:   0.5286 0.9486 0.6789
Normalization:     0.5082 0.9119 0.6527

WER:  0.05375
CER:  0.02259

notFound:           330
Total:              18941
Average candidates: 86.89
Upperbound:         0.9826 (18611)
Baseline:           0.8967 (16985)
Training time:      2659
Testing time:       443

TP 994
TN 16929
FP 56
FN 962
Real Prec: 0.9467
normed: 1090
Real rec: 0.5082
needNorm: 1956
ERR:  0.4796

orig = cand[0]     499
orig = cand[1]     52
orig = cand[other] 12
