EVALUATION:
 rank    counts    recall
    1     17322    0.9734
    2       174    0.9831
    3        38    0.9853
    4        12    0.986
    5        14    0.9867
    6         8    0.9872
    7         4    0.9874
    8         5    0.9877
    9         2    0.9878
   10         1    0.9879

                      rec   prec    f1
Error Detection:   0.7316 0.9491 0.8263
Normalization:     0.7009 0.9093 0.7916

WER:  0.02664
CER:  0.01263

notFound:           190
Total:              17796
Average candidates: 114.7
Upperbound:         0.9893 (17606)
Baseline:           0.9213 (16395)
Training time:      3452
Testing time:       564

TP 982
TN 16340
FP 55
FN 419
Real Prec: 0.947
normed: 1080
Real rec: 0.7009
needNorm: 1401
ERR:  0.6617

orig = cand[0]     136
orig = cand[1]     51
orig = cand[other] 11
