EVALUATION:
 rank    counts    recall
    1     17306    0.9725
    2       191    0.9832
    3        33    0.9851
    4        17    0.986
    5        10    0.9866
    6         2    0.9867
    7         6    0.987
    8         3    0.9872
    9         3    0.9874
   10         1    0.9874

                      rec   prec    f1
Error Detection:   0.7166 0.9544 0.8186
Normalization:     0.6845 0.9116 0.7819

WER:  0.02753
CER:  0.01306

notFound:           190
Total:              17796
Average candidates: 114.7
Upperbound:         0.9893 (17606)
Baseline:           0.9213 (16395)
Training time:      3690
Testing time:       509

TP 959
TN 16347
FP 48
FN 442
Real Prec: 0.9523
normed: 1052
Real rec: 0.6845
needNorm: 1401
ERR:  0.6502

orig = cand[0]     158
orig = cand[1]     46
orig = cand[other] 11
