EVALUATION:
 rank    counts    recall
    1      8958    0.977
    2       115    0.9895
    3        19    0.9916
    4         8    0.9925
    5         1    0.9926
    6         1    0.9927
    7         0    0.9927
    8         0    0.9927
    9         1    0.9928
   10         0    0.9928

                      rec   prec    f1
Error Detection:   0.8126 0.9295 0.8671
Normalization:     0.7908 0.9046 0.8438

WER:  0.02301
CER:  0.01273

notFound:           60
Total:              9169
Average candidates: 75.35
Upperbound:         0.9935 (9109)
Baseline:           0.915 (8390)
Training time:      1146
Testing time:       162

TP 616
TN 8342
FP 48
FN 163
Real Prec: 0.9277
normed: 681
Real rec: 0.7908
needNorm: 779
ERR:  0.7291

orig = cand[0]     70
orig = cand[1]     41
orig = cand[other] 4
