EVALUATION:
 rank    counts    recall
    1      8943    0.9754
    2       133    0.9899
    3        16    0.9916
    4         3    0.9919
    5         3    0.9923
    6         0    0.9923
    7         1    0.9924
    8         1    0.9925
    9         0    0.9925
   10         0    0.9925

                      rec   prec    f1
Error Detection:   0.7818 0.9355 0.8517
Normalization:     0.7638  0.914 0.8322

WER:  0.02465
CER:  0.01336

notFound:           60
Total:              9169
Average candidates: 75.35
Upperbound:         0.9935 (9109)
Baseline:           0.915 (8390)
Training time:      338
Testing time:       177

TP 595
TN 8348
FP 42
FN 184
Real Prec: 0.9341
normed: 651
Real rec: 0.7638
needNorm: 779
ERR:  0.7099

orig = cand[0]     91
orig = cand[1]     38
orig = cand[other] 4
