EVALUATION:
 rank    counts    recall
    1     17824    0.941
    2       594    0.9724
    3        57    0.9754
    4        20    0.9765
    5        12    0.9771
    6         7    0.9775
    7        10    0.978
    8         5    0.9782
    9         4    0.9785
   10         2    0.9786

                      rec   prec    f1
Error Detection:   0.4703 0.9573 0.6308
Normalization:     0.4499 0.9157 0.6034

WER:  0.05897
CER:  0.02361

notFound:           330
Total:              18941
Average candidates: 86.89
Upperbound:         0.9826 (18611)
Baseline:           0.8967 (16985)
Training time:      1030
Testing time:       513

TP 880
TN 16944
FP 41
FN 1076
Real Prec: 0.9555
normed: 961
Real rec: 0.4499
needNorm: 1956
ERR:  0.4289

orig = cand[0]     598
orig = cand[1]     37
orig = cand[other] 20
