EVALUATION:
 rank    counts    recall
    1     17237    0.9686
    2       268    0.9836
    3        32    0.9854
    4        20    0.9866
    5        10    0.9871
    6         2    0.9872
    7         5    0.9875
    8         4    0.9878
    9         0    0.9878
   10         0    0.9878

                      rec   prec    f1
Error Detection:   0.6517  0.959  0.776
Normalization:     0.6288 0.9254 0.7488

WER:  0.03141
CER:  0.01455

notFound:           190
Total:              17796
Average candidates: 114.7
Upperbound:         0.9893 (17606)
Baseline:           0.9213 (16395)
Training time:      516
Testing time:       552

TP 881
TN 16356
FP 39
FN 520
Real Prec: 0.9576
normed: 952
Real rec: 0.6288
needNorm: 1401
ERR:  0.601

orig = cand[0]     242
orig = cand[1]     39
orig = cand[other] 11
