EVALUATION:
 rank    counts    recall
    1     14330    0.9359
    2       434    0.9643
    3        88    0.97
    4        40    0.9726
    5        28    0.9745
    6         9    0.9751
    7         4    0.9753
    8         3    0.9755
    9         2    0.9756
   10         2    0.9758

                      rec   prec    f1
Error Detection:    0.674 0.9661  0.794
Normalization:     0.6239 0.8943  0.735

WER:  0.06407
CER:  0.02303

notFound:           331
Total:              15311
Average candidates: 215.4
Upperbound:         0.9784 (14980)
Baseline:           0.8397 (12857)
Training time:      485
Testing time:       671

TP 1531
TN 12799
FP 58
FN 923
Real Prec: 0.9635
normed: 1712
Real rec: 0.6239
needNorm: 2454
ERR:  0.6002

orig = cand[0]     359
orig = cand[1]     51
orig = cand[other] 51
