EVALUATION:
 rank    counts    recall
    1      7744    0.9583
    2       228    0.9865
    3        44    0.992
    4         8    0.9929
    5         5    0.9936
    6         1    0.9937
    7         0    0.9937
    8         0    0.9937
    9         1    0.9938
   10         0    0.9938

                      rec   prec    f1
Error Detection:   0.7494 0.8696  0.805
Normalization:     0.7178 0.8329 0.7711

WER:  0.0417
CER:  0.01891

notFound:           36
Total:              8081
Average candidates: 84.15
Upperbound:         0.9955 (8045)
Baseline:           0.8943 (7227)
Training time:      2291
Testing time:       191

TP 613
TN 7131
FP 96
FN 241
Real Prec: 0.8646
normed: 736
Real rec: 0.7178
needNorm: 854
ERR:  0.6054

orig = cand[0]     132
orig = cand[1]     82
orig = cand[other] 14
