EVALUATION:
 rank    counts    recall
    1      1335    0.9355
    2        52    0.972
    3         7    0.9769
    4         2    0.9783
    5         2    0.9797
    6         0    0.9797
    7         0    0.9797
    8         0    0.9797
    9         0    0.9797
   10         0    0.9797

                      rec   prec    f1
Error Detection:   0.2705      1 0.4258
Normalization:     0.2459 0.9091 0.3871

WER:  0.06447
CER:  0.02785

notFound:           26
Total:              1427
Average candidates: 71.03
Upperbound:         0.9818 (1401)
Baseline:           0.9145 (1305)
Training time:      29
Testing time:       31

TP 30
TN 1305
FP 0
FN 92
Real Prec: 1
normed: 33
Real rec: 0.2459
needNorm: 122
ERR:  0.2459

orig = cand[0]     52
orig = cand[1]     0
orig = cand[other] 2
