EVALUATION:
 rank    counts    recall
    1      8945    0.9756
    2       134    0.9902
    3        11    0.9914
    4         9    0.9924
    5         0    0.9924
    6         1    0.9925
    7         1    0.9926
    8         0    0.9926
    9         0    0.9926
   10         1    0.9927

                      rec   prec    f1
Error Detection:   0.7856 0.9344 0.8536
Normalization:     0.7677  0.913  0.834

WER:  0.02443
CER:  0.01331

notFound:           60
Total:              9169
Average candidates: 75.35
Upperbound:         0.9935 (9109)
Baseline:           0.915 (8390)
Training time:      340
Testing time:       172

TP 598
TN 8347
FP 43
FN 181
Real Prec: 0.9329
normed: 655
Real rec: 0.7677
needNorm: 779
ERR:  0.7125

orig = cand[0]     92
orig = cand[1]     39
orig = cand[other] 3
