EVALUATION:
 rank    counts    recall
    1      7708    0.9538
    2       267    0.9869
    3        29    0.9905
    4        19    0.9928
    5         5    0.9934
    6         2    0.9937
    7         2    0.9939
    8         1    0.9941
    9         2    0.9943
   10         0    0.9943

                      rec   prec    f1
Error Detection:   0.7037 0.8748   0.78
Normalization:     0.6639 0.8253 0.7359

WER:  0.04616
CER:  0.02083

notFound:           36
Total:              8081
Average candidates: 84.15
Upperbound:         0.9955 (8045)
Baseline:           0.8943 (7227)
Training time:      393
Testing time:       183

TP 567
TN 7141
FP 86
FN 287
Real Prec: 0.8683
normed: 687
Real rec: 0.6639
needNorm: 854
ERR:  0.5632

orig = cand[0]     172
orig = cand[1]     77
orig = cand[other] 18
