EVALUATION:
 rank    counts    recall
    1     17309    0.9726
    2       195    0.9836
    3        31    0.9853
    4        16    0.9862
    5         9    0.9867
    6         5    0.987
    7         4    0.9872
    8         4    0.9875
    9         5    0.9878
   10         2    0.9879

                      rec   prec    f1
Error Detection:   0.7081 0.9585 0.8144
Normalization:     0.6831 0.9246 0.7857

WER:  0.02737
CER:  0.0128

notFound:           190
Total:              17796
Average candidates: 114.7
Upperbound:         0.9893 (17606)
Baseline:           0.9213 (16395)
Training time:      4749
Testing time:       502

TP 957
TN 16352
FP 43
FN 444
Real Prec: 0.957
normed: 1035
Real rec: 0.6831
needNorm: 1401
ERR:  0.6524

orig = cand[0]     166
orig = cand[1]     43
orig = cand[other] 10
