EVALUATION:
 rank    counts    recall
    1     17828    0.9412
    2       341    0.9592
    3        59    0.9624
    4        23    0.9636
    5         8    0.964
    6         7    0.9644
    7         2    0.9645
    8         2    0.9646
    9         0    0.9646
   10         3    0.9647

                      rec   prec    f1
Error Detection:   0.4862 0.9369 0.6402
Normalization:     0.4637 0.8936 0.6106

WER:  0.05876
CER:  0.02442

notFound:           599
Total:              18941
Average candidates: 71.17
Upperbound:         0.9684 (18342)
Baseline:           0.8967 (16985)
Training time:      1798
Testing time:       307

TP 907
TN 16921
FP 64
FN 1049
Real Prec: 0.9341
normed: 1015
Real rec: 0.4637
needNorm: 1956
ERR:  0.431

orig = cand[0]     460
orig = cand[1]     59
orig = cand[other] 10
