EVALUATION:
 rank    counts    recall
    1      7659    0.9478
    2       153    0.9667
    3        27    0.9701
    4         5    0.9707
    5         0    0.9707
    6         0    0.9707
    7         0    0.9707
    8         2    0.9709
    9         0    0.9709
   10         0    0.9709

                      rec   prec    f1
Error Detection:   0.6499 0.8578 0.7395
Normalization:     0.6136 0.8099 0.6982

WER:  0.05222
CER:  0.02421

notFound:           221
Total:              8081
Average candidates: 59.56
Upperbound:         0.9727 (7860)
Baseline:           0.8943 (7227)
Training time:      1234
Testing time:       120

TP 524
TN 7135
FP 92
FN 330
Real Prec: 0.8506
normed: 647
Real rec: 0.6136
needNorm: 854
ERR:  0.5059

orig = cand[0]     111
orig = cand[1]     75
orig = cand[other] 11
