EVALUATION:
 rank    counts    recall
    1      1345    0.9425
    2        45    0.9741
    3         6    0.9783
    4         1    0.979
    5         0    0.979
    6         1    0.9797
    7         0    0.9797
    8         1    0.9804
    9         0    0.9804
   10         0    0.9804

                      rec   prec    f1
Error Detection:   0.3607 0.9362 0.5207
Normalization:     0.3525 0.9149 0.5089

WER:  0.05746
CER:  0.02632

notFound:           26
Total:              1427
Average candidates: 71.03
Upperbound:         0.9818 (1401)
Baseline:           0.9145 (1305)
Training time:      158
Testing time:       31

TP 43
TN 1302
FP 3
FN 79
Real Prec: 0.9348
normed: 47
Real rec: 0.3525
needNorm: 122
ERR:  0.3279

orig = cand[0]     44
orig = cand[1]     3
orig = cand[other] 0
