EVALUATION:
 rank    counts    recall
    1      7750    0.959
    2       230    0.9875
    3        31    0.9913
    4        11    0.9927
    5         2    0.9929
    6         2    0.9932
    7         1    0.9933
    8         2    0.9936
    9         1    0.9937
   10         1    0.9938

                      rec   prec    f1
Error Detection:   0.7576 0.8755 0.8123
Normalization:     0.7201 0.8322 0.7721

WER:  0.04096
CER:  0.01844

notFound:           36
Total:              8081
Average candidates: 84.15
Upperbound:         0.9955 (8045)
Baseline:           0.8943 (7227)
Training time:      1502
Testing time:       165

TP 615
TN 7135
FP 92
FN 239
Real Prec: 0.8699
normed: 739
Real rec: 0.7201
needNorm: 854
ERR:  0.6124

orig = cand[0]     135
orig = cand[1]     81
orig = cand[other] 14
