EVALUATION:
 rank    counts    recall
    1      1338    0.9376
    2        42    0.9671
    3        10    0.9741
    4         2    0.9755
    5         1    0.9762
    6         4    0.979
    7         0    0.979
    8         1    0.9797
    9         0    0.9797
   10         0    0.9797

                      rec   prec    f1
Error Detection:   0.7213 0.6822 0.7012
Normalization:     0.6066 0.5736 0.5896

WER:  0.06237
CER:  0.03045

notFound:           27
Total:              1427
Average candidates: 341.7
Upperbound:         0.9811 (1400)
Baseline:           0.9145 (1305)
Training time:      901
Testing time:       134

TP 74
TN 1264
FP 41
FN 48
Real Prec: 0.6435
normed: 129
Real rec: 0.6066
needNorm: 122
ERR:  0.2705

orig = cand[0]     8
orig = cand[1]     29
orig = cand[other] 6
