EVALUATION:
 rank    counts    recall
    1     14375    0.9389
    2       339    0.961
    3        91    0.967
    4        39    0.9695
    5        40    0.9721
    6        12    0.9729
    7         7    0.9734
    8         3    0.9735
    9         3    0.9737
   10         1    0.9738

                      rec   prec    f1
Error Detection:   0.7327 0.9299 0.8196
Normalization:     0.6667 0.8462 0.7458

WER:  0.06113
CER:  0.02192

notFound:           355
Total:              15311
Average candidates: 211.2
Upperbound:         0.9768 (14956)
Baseline:           0.8427 (12902)
Training time:      7670
Testing time:       941

TP 1606
TN 12769
FP 133
FN 803
Real Prec: 0.9235
normed: 1898
Real rec: 0.6667
needNorm: 2409
ERR:  0.6115

orig = cand[0]     224
orig = cand[1]     119
orig = cand[other] 35
