EVALUATION:
 rank    counts    recall
    1      7764    0.9617
    2        73    0.9708
    3         7    0.9716
    4         3    0.972
    5         0    0.972
    6         2    0.9723
    7         0    0.9723
    8         1    0.9724
    9         0    0.9724
   10         1    0.9725

                      rec   prec    f1
Error Detection:   0.3176 0.8882 0.4679
Normalization:     0.3129  0.875  0.461

WER:  0.03828
CER:  0.01375

notFound:           207
Total:              8073
Average candidates: 68.82
Upperbound:         0.9744 (7866)
Baseline:           0.9474 (7648)
Training time:      657
Testing time:       180

TP 133
TN 7631
FP 17
FN 292
Real Prec: 0.8867
normed: 152
Real rec: 0.3129
needNorm: 425
ERR:  0.2729

orig = cand[0]     83
orig = cand[1]     17
orig = cand[other] 0
