EVALUATION:
 rank    counts    recall
    1      2623    0.982
    2        23    0.9906
    3         5    0.9925
    4         1    0.9929
    5         0    0.9929
    6         2    0.9936
    7         0    0.9936
    8         1    0.994
    9         0    0.994
   10         0    0.994

                      rec   prec    f1
Error Detection:   0.5763 0.6415 0.6071
Normalization:     0.5085  0.566 0.5357

WER:  0.01797
CER:  0.01132

notFound:           8
Total:              2671
Average candidates: 189.6
Upperbound:         0.997 (2663)
Baseline:           0.9779 (2612)
Training time:      716
Testing time:       151

TP 30
TN 2593
FP 19
FN 29
Real Prec: 0.6122
normed: 53
Real rec: 0.5085
needNorm: 59
ERR:  0.1864

orig = cand[0]     8
orig = cand[1]     15
orig = cand[other] 0
