EVALUATION:
 rank    counts    recall
    1      7756    0.9598
    2       199    0.9844
    3        32    0.9884
    4        19    0.9907
    5         6    0.9915
    6         5    0.9921
    7         1    0.9922
    8         1    0.9923
    9         1    0.9925
   10         1    0.9926

                      rec   prec    f1
Error Detection:   0.8279 0.8407 0.8342
Normalization:     0.7763 0.7883 0.7823

WER:  0.04022
CER:  0.01923

notFound:           49
Total:              8081
Average candidates: 84.19
Upperbound:         0.9939 (8032)
Baseline:           0.8943 (7227)
Training time:      1688
Testing time:       258

TP 663
TN 7093
FP 134
FN 191
Real Prec: 0.8319
normed: 841
Real rec: 0.7763
needNorm: 854
ERR:  0.6194

orig = cand[0]     79
orig = cand[1]     101
orig = cand[other] 19
