EVALUATION:
 rank    counts    recall
    1     17329    0.9738
    2       175    0.9836
    3        31    0.9853
    4        23    0.9866
    5        13    0.9874
    6         5    0.9876
    7         3    0.9878
    8         8    0.9883
    9         0    0.9883
   10         0    0.9883

                      rec   prec    f1
Error Detection:   0.7095 0.9613 0.8164
Normalization:     0.6952  0.942    0.8

WER:  0.02624
CER:  0.01284

notFound:           171
Total:              17796
Average candidates: 113.8
Upperbound:         0.9904 (17625)
Baseline:           0.9213 (16395)
Training time:      5462
Testing time:       756

TP 974
TN 16355
FP 40
FN 427
Real Prec: 0.9606
normed: 1034
Real rec: 0.6952
needNorm: 1401
ERR:  0.6667

orig = cand[0]     160
orig = cand[1]     39
orig = cand[other] 4
