EVALUATION:
 rank    counts    recall
    1      7733    0.9569
    2       232    0.9856
    3        29    0.9892
    4        15    0.9911
    5         4    0.9916
    6         4    0.9921
    7         1    0.9922
    8         1    0.9923
    9         1    0.9925
   10         1    0.9926

                      rec   prec    f1
Error Detection:   0.7213 0.8813 0.7933
Normalization:     0.6897 0.8426 0.7585

WER:  0.04306
CER:  0.01996

notFound:           49
Total:              8081
Average candidates: 84.19
Upperbound:         0.9939 (8032)
Baseline:           0.8943 (7227)
Training time:      1768
Testing time:       239

TP 589
TN 7144
FP 83
FN 265
Real Prec: 0.8765
normed: 699
Real rec: 0.6897
needNorm: 854
ERR:  0.5925

orig = cand[0]     153
orig = cand[1]     69
orig = cand[other] 10
