EVALUATION:
 rank    counts    recall
    1      2623    0.982
    2        27    0.9921
    3         4    0.9936
    4         1    0.994
    5         0    0.994
    6         2    0.9948
    7         0    0.9948
    8         0    0.9948
    9         0    0.9948
   10         0    0.9948

                      rec   prec    f1
Error Detection:   0.2881 0.7391 0.4146
Normalization:     0.2881 0.7391 0.4146

WER:  0.01797
CER:  0.008831

notFound:           8
Total:              2671
Average candidates: 189.6
Upperbound:         0.997 (2663)
Baseline:           0.9779 (2612)
Training time:      502
Testing time:       144

TP 17
TN 2606
FP 6
FN 42
Real Prec: 0.7391
normed: 23
Real rec: 0.2881
needNorm: 59
ERR:  0.1864

orig = cand[0]     21
orig = cand[1]     6
orig = cand[other] 0
