EVALUATION:
 rank    counts    recall
    1     17327    0.9736
    2       177    0.9836
    3        31    0.9853
    4        23    0.9866
    5        13    0.9874
    6         5    0.9876
    7         3    0.9878
    8         8    0.9883
    9         0    0.9883
   10         0    0.9883

                      rec   prec    f1
Error Detection:   0.7038 0.9657 0.8142
Normalization:     0.6902 0.9471 0.7985

WER:  0.02635
CER:  0.01296

notFound:           171
Total:              17796
Average candidates: 113.8
Upperbound:         0.9904 (17625)
Baseline:           0.9213 (16395)
Training time:      5345
Testing time:       774

TP 967
TN 16360
FP 35
FN 434
Real Prec: 0.9651
normed: 1021
Real rec: 0.6902
needNorm: 1401
ERR:  0.6652

orig = cand[0]     167
orig = cand[1]     34
orig = cand[other] 4
