EVALUATION:
 rank    counts    recall
    1      7755    0.9606
    2        81    0.9706
    3         8    0.9716
    4         3    0.972
    5         0    0.972
    6         2    0.9723
    7         0    0.9723
    8         1    0.9724
    9         0    0.9724
   10         1    0.9725

                      rec   prec    f1
Error Detection:   0.3741 0.7833 0.5064
Normalization:     0.3553 0.7438 0.4809

WER:  0.03939
CER:  0.01431

notFound:           207
Total:              8073
Average candidates: 68.82
Upperbound:         0.9744 (7866)
Baseline:           0.9474 (7648)
Training time:      935
Testing time:       206

TP 151
TN 7604
FP 44
FN 274
Real Prec: 0.7744
normed: 203
Real rec: 0.3553
needNorm: 425
ERR:  0.2518

orig = cand[0]     65
orig = cand[1]     43
orig = cand[other] 0
