EVALUATION:
 rank    counts    recall
    1      7625    0.9436
    2       248    0.9743
    3        59    0.9816
    4        30    0.9853
    5        21    0.9879
    6        22    0.9906
    7         6    0.9913
    8         3    0.9917
    9         3    0.9921
   10         1    0.9922

                      rec   prec    f1
Error Detection:   0.9333 0.7103 0.8067
Normalization:     0.8466 0.6444 0.7318

WER:  0.05643
CER:  0.02768

notFound:           49
Total:              8081
Average candidates: 84.19
Upperbound:         0.9939 (8032)
Baseline:           0.8943 (7227)
Training time:      1554
Testing time:       241

TP 723
TN 6902
FP 325
FN 131
Real Prec: 0.6899
normed: 1122
Real rec: 0.8466
needNorm: 854
ERR:  0.466

orig = cand[0]     19
orig = cand[1]     208
orig = cand[other] 21
