EVALUATION:
 rank    counts    recall
    1     17647    0.9317
    2       556    0.961
    3       170    0.97
    4        52    0.9728
    5        40    0.9749
    6        24    0.9761
    7        11    0.9767
    8         4    0.9769
    9         2    0.977
   10         1    0.9771

                      rec   prec    f1
Error Detection:   0.7837 0.6952 0.7368
Normalization:      0.682  0.605 0.6412

WER:  0.06832
CER:  0.02915

notFound:           396
Total:              18941
Average candidates: 84.28
Upperbound:         0.9791 (18545)
Baseline:           0.8967 (16985)
Training time:      2801
Testing time:       602

TP 1334
TN 16313
FP 672
FN 622
Real Prec: 0.665
normed: 2205
Real rec: 0.682
needNorm: 1956
ERR:  0.3384

orig = cand[0]     155
orig = cand[1]     464
orig = cand[other] 28
