EVALUATION:
 rank    counts    recall
    1      8946    0.9757
    2       120    0.9888
    3        14    0.9903
    4         7    0.9911
    5         2    0.9913
    6         3    0.9916
    7         1    0.9917
    8         0    0.9917
    9         0    0.9917
   10         0    0.9917

                      rec   prec    f1
Error Detection:     0.81 0.9158 0.8597
Normalization:     0.7882 0.8911 0.8365

WER:  0.02432
CER:  0.0136

notFound:           63
Total:              9169
Average candidates: 75.45
Upperbound:         0.9931 (9106)
Baseline:           0.915 (8390)
Training time:      1822
Testing time:       254

TP 614
TN 8332
FP 58
FN 165
Real Prec: 0.9137
normed: 689
Real rec: 0.7882
needNorm: 779
ERR:  0.7137

orig = cand[0]     62
orig = cand[1]     52
orig = cand[other] 6
