EVALUATION:
 rank    counts    recall
    1      2626    0.9832
    2        24    0.9921
    3         4    0.9936
    4         1    0.994
    5         0    0.994
    6         2    0.9948
    7         0    0.9948
    8         0    0.9948
    9         0    0.9948
   10         0    0.9948

                      rec   prec    f1
Error Detection:   0.3729 0.7333 0.4944
Normalization:     0.3729 0.7333 0.4944

WER:  0.01685
CER:  0.008831

notFound:           8
Total:              2671
Average candidates: 189.6
Upperbound:         0.997 (2663)
Baseline:           0.9779 (2612)
Training time:      675
Testing time:       175

TP 22
TN 2604
FP 8
FN 37
Real Prec: 0.7333
normed: 30
Real rec: 0.3729
needNorm: 59
ERR:  0.2373

orig = cand[0]     16
orig = cand[1]     8
orig = cand[other] 0
