EVALUATION:
 rank    counts    recall
    1      8948    0.9759
    2       115    0.9884
    3        17    0.9903
    4         7    0.9911
    5         2    0.9913
    6         3    0.9916
    7         1    0.9917
    8         0    0.9917
    9         0    0.9917
   10         0    0.9917

                      rec   prec    f1
Error Detection:   0.8306 0.9024  0.865
Normalization:     0.8062 0.8759 0.8396

WER:  0.0241
CER:  0.01358

notFound:           63
Total:              9169
Average candidates: 75.45
Upperbound:         0.9931 (9106)
Baseline:           0.915 (8390)
Training time:      1525
Testing time:       263

TP 628
TN 8320
FP 70
FN 151
Real Prec: 0.8997
normed: 717
Real rec: 0.8062
needNorm: 779
ERR:  0.7163

orig = cand[0]     48
orig = cand[1]     60
orig = cand[other] 7
