EVALUATION:
 rank    counts    recall
    1      2628    0.9839
    2        21    0.9918
    3         5    0.9936
    4         1    0.994
    5         0    0.994
    6         2    0.9948
    7         0    0.9948
    8         0    0.9948
    9         0    0.9948
   10         0    0.9948

                      rec   prec    f1
Error Detection:   0.4407 0.7429 0.5532
Normalization:     0.4237 0.7143 0.5319

WER:  0.0161
CER:  0.008689

notFound:           8
Total:              2671
Average candidates: 189.6
Upperbound:         0.997 (2663)
Baseline:           0.9779 (2612)
Training time:      605
Testing time:       146

TP 25
TN 2603
FP 9
FN 34
Real Prec: 0.7353
normed: 35
Real rec: 0.4237
needNorm: 59
ERR:  0.2712

orig = cand[0]     13
orig = cand[1]     8
orig = cand[other] 0
