EVALUATION:
 rank    counts    recall
    1      7753    0.9594
    2       202    0.9844
    3        33    0.9885
    4        18    0.9907
    5         5    0.9913
    6         6    0.9921
    7         1    0.9922
    8         1    0.9923
    9         1    0.9925
   10         1    0.9926

                      rec   prec    f1
Error Detection:   0.8173  0.844 0.8305
Normalization:      0.767  0.792 0.7793

WER:  0.04059
CER:  0.01936

notFound:           49
Total:              8081
Average candidates: 84.19
Upperbound:         0.9939 (8032)
Baseline:           0.8943 (7227)
Training time:      1769
Testing time:       251

TP 655
TN 7098
FP 129
FN 199
Real Prec: 0.8355
normed: 827
Real rec: 0.767
needNorm: 854
ERR:  0.6159

orig = cand[0]     87
orig = cand[1]     98
orig = cand[other] 17
