EVALUATION:
 rank    counts    recall
    1      1343    0.9411
    2        44    0.972
    3         7    0.9769
    4         2    0.9783
    5         0    0.9783
    6         1    0.979
    7         0    0.979
    8         1    0.9797
    9         0    0.9797
   10         0    0.9797

                      rec   prec    f1
Error Detection:   0.3607 0.9565 0.5238
Normalization:     0.3279 0.8696 0.4762

WER:  0.05886
CER:  0.0262

notFound:           27
Total:              1427
Average candidates: 341.7
Upperbound:         0.9811 (1400)
Baseline:           0.9145 (1305)
Training time:      733
Testing time:       117

TP 40
TN 1303
FP 2
FN 82
Real Prec: 0.9524
normed: 46
Real rec: 0.3279
needNorm: 122
ERR:  0.3115

orig = cand[0]     42
orig = cand[1]     2
orig = cand[other] 1
