EVALUATION:
 rank    counts    recall
    1     17947    0.9475
    2       442    0.9709
    3        54    0.9737
    4        26    0.9751
    5        12    0.9757
    6        14    0.9765
    7         8    0.9769
    8         4    0.9771
    9         1    0.9771
   10         1    0.9772

                      rec   prec    f1
Error Detection:   0.5317 0.9541 0.6829
Normalization:     0.5174 0.9284 0.6645

WER:  0.05248
CER:  0.02215

notFound:           396
Total:              18941
Average candidates: 84.28
Upperbound:         0.9791 (18545)
Baseline:           0.8967 (16985)
Training time:      3011
Testing time:       562

TP 1012
TN 16935
FP 50
FN 944
Real Prec: 0.9529
normed: 1090
Real rec: 0.5174
needNorm: 1956
ERR:  0.4918

orig = cand[0]     477
orig = cand[1]     45
orig = cand[other] 11
